ping 8.8.8.8
ping kernel.org
ping 149.20.4.69
dig @8.8.8.8 www.youtube.com
dnf -y install mtr GeoIP GeoIP-GeoLite-data GeoIP-GeoLite-data-extra
dnf search geoip
dnf info GeoIP-GeoLite-data

mtr --report www.youtube.com
mtr -n --report www.gencat.cat
mtr -n --report www.openhost.co.nz
geoiplookup 72.52.92.122
geoiplookup 175.45.87.61
geoiplookup 119.47.118.9
geoiplookup 72.52.92.222
geoiplookup 94.142.103.201

wireshark &
wget https://kernel.org
wget http://netfilter.org
wireshark &


tshark -i enp2s0 -w /tmp/web.pcap


chmod a+r /tmp/web.pcap 
ls -lh /tmp/web.pcap 


tshark -i enp2s0 -w /tmp/web.pcap &
sleep 10
killall tshark

rm -f /tmp/webs.pcap
tshark -i enp2s0 -w /tmp/webs.pcap -a duration:4 &
wget https://kernel.org
sleep 8

rm -f /tmp/web.pcap
tshark -i enp2s0 -w /tmp/web.pcap -a duration:4 &
sleep 4
chmod a+r /tmp/*.pcap
ls -lh /tmp/*.pcap

history -a
